<?xml version="1.0" encoding="iso-8859-1"?>
<!-- Generator: Adobe Illustrator 19.0.0, SVG Export Plug-In . SVG Version: 6.00 Build 0)  -->
<svg version="1.1" id="Layer_1" xmlns="http://www.w3.org/2000/svg" xmlns:xlink="http://www.w3.org/1999/xlink" x="0px" y="0px"
	 viewBox="0 0 512 512" style="enable-background: new 0 0 512 512" xml:space="preserve">
<g>
        </g>
<g>
</g>
<g>
</g>
<g>
</g>
<g>
</g>
<g>
</g>
<g>
</g>
<g>
</g>
<g>
</g>
<g>
</g>
<g>
</g>
<g>
</g>
<g>
</g>
<g>
</g>
<g>
</g>
<g>
        <path fill="red" stroke="none" d="M 289.5 181.3 v -54.3 l 11.2 -77.7 L 281.8 0 h -53.6 l -18.9 49.3 l 11.2 77.7 v 54.3 H -1 v 47.8 l 70.2 12.4 v 19.7 c 0 7.2 5.9 13.1 13.1 13.1 h 15.7 c 7.2 0 13.1 -5.9 13.1 -13.1 v -12.3 l 28.4 5 v 28.2 c 0 7.2 5.9 13.1 13.1 13.1 h 15.7 c 7.2 0 13.1 -5.9 13.1 -13.1 v -20.8 l 39.4 7 v 118.3 H 104 v 47.6 l 121.5 28 l 1.2 8.6 h -34.4 V 486.4 h 36.6 l 3.6 25.6 h 45 l 3.6 -25.6 h 36.6 v -15.7 h -34.4 l 1.2 -8.4 l 122.6 -28.2 v -47.6 H 289.5 V 268.4 l 39.4 -7 v 20.7 c 0 7.2 5.9 13.1 13.1 13.1 h 15.7 c 7.2 0 13.1 -5.9 13.1 -13.1 v -28.1 l 28.4 -5 v 12.2 c 0 7.2 5.9 13.1 13.1 13.1 h 15.7 c 7.2 0 13.1 -5.9 13.1 -13.1 v -19.6 L 511 229.1 V 181.3 H 289.5 z M 95.3 258.6 H 84.9 v -35.5 c 0 -2.9 2.3 -5.2 5.2 -5.2 s 5.2 2.3 5.2 5.2 V 258.6 z M 165.5 279.5 h -10.4 v -56.4 c 0 -2.9 2.3 -5.2 5.2 -5.2 c 2.9 0 5.2 2.3 5.2 5.2 V 279.5 z M 235.7 445.1 c 0 1.1 -0.6 1.8 -1 2 c -0.4 0.3 -1.1 0.7 -2.2 0.5 l -112.8 -26 v -19.4 h 113.4 c 1.4 0 2.6 1.2 2.6 2.6 V 445.1 z M 235.7 251.9 c 0 1.1 -0.6 1.7 -0.9 2 c -0.3 0.3 -1.1 0.8 -2.1 0.6 l -51.4 -9.1 v -22.3 c 0 -11.5 -9.4 -20.9 -20.9 -20.9 c -11.5 0 -20.9 9.4 -20.9 20.9 v 14.9 l -28.4 -5 v -9.9 c 0 -11.5 -9.4 -20.9 -20.9 -20.9 s -20.9 9.4 -20.9 20.9 v 2.5 l -54.5 -9.6 v -19 h 218.4 c 1.4 0 2.6 1.2 2.6 2.6 V 251.9 z M 263.9 496.3 h -17.7 l -1.4 -9.9 h 20.5 L 263.9 496.3 z M 267.5 470.7 h -24.9 v 0 l -1.3 -9.3 c 1.1 -0.6 2.2 -1.2 3.2 -2 c 4.4 -3.5 6.9 -8.7 6.9 -14.3 v -10.9 h 8.4 v 10.9 c 0 5.6 2.5 10.8 6.9 14.3 c 0.7 0.6 1.5 1.1 2.2 1.5 L 267.5 470.7 z M 273.8 181.8 c -8.1 1.9 -14.1 9.1 -14.1 17.8 v 52.3 c 0 5.4 2.4 10.5 6.5 14 c 2.2 1.9 4.8 3.1 7.6 3.8 V 387.1 c -8.1 1.9 -14.1 9.1 -14.1 17.8 v 13.6 h -8.4 v -13.6 c 0 -9 -6.6 -16.5 -15.2 -18 V 269.9 c 3.1 -0.5 6.1 -1.9 8.6 -4 c 4.2 -3.5 6.5 -8.6 6.5 -14 v -52.3 c 0 -9 -6.6 -16.5 -15.2 -18 v -55.7 L 225.4 51.1 l 13.5 -35.4 h 32.1 l 13.5 35.4 l -10.8 74.8 V 181.8 z M 391.4 402.2 v 19.4 L 278.6 447.6 c -1.1 0.2 -1.8 -0.2 -2.2 -0.5 c -0.4 -0.3 -1 -0.9 -1 -2 v -40.2 c 0 -1.4 1.2 -2.6 2.6 -2.6 H 391.4 z M 355 279.5 h -10.4 v -56.4 c 0 -2.9 2.3 -5.2 5.2 -5.2 c 2.9 0 5.2 2.3 5.2 5.2 V 279.5 z M 425.1 258.6 h -10.4 v -35.5 c 0 -2.9 2.3 -5.2 5.2 -5.2 c 2.9 0 5.2 2.3 5.2 5.2 V 258.6 z M 440.8 225.7 v -2.6 c 0 -11.5 -9.4 -20.9 -20.9 -20.9 s -20.9 9.4 -20.9 20.9 v 10 l -28.4 5 v -15 c 0 -11.5 -9.4 -20.9 -20.9 -20.9 c -11.5 0 -20.9 9.4 -20.9 20.9 v 22.4 l -50.4 8.9 c -1.1 0.2 -1.8 -0.3 -2.1 -0.6 c -0.3 -0.3 -0.9 -0.9 -0.9 -2 v -52.3 c 0 -1.4 1.2 -2.6 2.6 -2.6 h 217.3 v 19 h 0 L 440.8 225.7 z"/>
</g>
</svg>
